<svg width="21" height="22" viewBox="0 0 21 22" fill="none" xmlns="http://www.w3.org/2000/svg">
<path d="M10.5 -4.15258e-07L10.5 19.1829M20 11.0114L10.5 20L1 11.0114" stroke="white" stroke-width="2"/>
</svg>
