<svg width="34" height="27" viewBox="0 0 34 27" fill="none" xmlns="http://www.w3.org/2000/svg">
<path d="M0.6 17.3C0.6 23.1 4.2 26.4 8.3 26.4C12.1 26.4 15.1 23.3 15.1 19.6C15.1 15.9 12.5 13.3 9.2 13.3C8.5 13.3 7.7 13.4 7.5 13.5C8.1 10.1 11.5 6 14.7 4.09999L9.9 0.299995C4.4 4.2 0.6 10.4 0.6 17.3ZM19.1 17.3C19.1 23.1 22.7 26.4 26.8 26.4C30.6 26.4 33.6 23.3 33.6 19.6C33.6 15.9 31 13.3 27.7 13.3C27 13.3 26.2 13.4 26 13.5C26.6 10.1 30 6 33.2 4.09999L28.4 0.299995C22.9 4.2 19.1 10.4 19.1 17.3Z" fill="white"/>
</svg>
